matrixtb.vcd
$date
	Wed Nov 28 00:40:49 2018
$end
$version
	Icarus Verilog
$end
$timescale
	1s
$end
$scope module tb_matrix $end
$var reg 1 ! CLK $end
$var reg 1 " reset $end
$scope module dut $end
$var wire 1 ! CLK $end
$var wire 1 # PC_enable $end
$var wire 1 " reset $end
$var wire 32 $ instruction [31:0] $end
$var wire 1 % Zero $end
$var wire 32 & WriteData [31:0] $end
$var wire 32 ' SignExtended [31:0] $end
$var wire 1 ( RegWrite $end
$var wire 1 ) RegDst $end
$var wire 32 * ReadData [31:0] $end
$var wire 32 + PC_next [31:0] $end
$var wire 32 , PCOUT [31:0] $end
$var wire 32 - PCIN [31:0] $end
$var wire 32 . PCBranch [31:0] $end
$var wire 1 / MemWrite $end
$var wire 1 0 MemToReg $end
$var wire 1 1 MemRead $end
$var wire 32 2 Data2 [31:0] $end
$var wire 32 3 Data1 [31:0] $end
$var wire 1 4 Branch $end
$var wire 32 5 AluResult [31:0] $end
$var wire 2 6 ALUop [1:0] $end
$var wire 1 7 ALUSrc $end
$var reg 6 8 state [5:0] $end
$scope module d $end
$var wire 6 9 state [5:0] $end
$var wire 32 : WriteData [31:0] $end
$var wire 1 ( RegWrite $end
$var wire 1 ) RegDst $end
$var wire 32 ; ReadData2 [31:0] $end
$var wire 32 < ReadData1 [31:0] $end
$var wire 1 / MemWrite $end
$var wire 1 0 MemToReg $end
$var wire 1 1 MemRead $end
$var wire 32 = Instruction [31:0] $end
$var wire 1 4 Branch $end
$var wire 1 7 ALUSrc $end
$var wire 2 > ALUOp [1:0] $end
$var reg 32 ? Data1 [31:0] $end
$var reg 32 @ Data2 [31:0] $end
$var reg 5 A RegDest [4:0] $end
$var reg 5 B RegSupport [4:0] $end
$var reg 32 C SignExtended [31:0] $end
$scope module C1 $end
$var wire 6 D opcode [5:0] $end
$var wire 6 E state [5:0] $end
$var reg 2 F ALUOp [1:0] $end
$var reg 1 7 ALUSrc $end
$var reg 1 4 Branch $end
$var reg 1 1 MemRead $end
$var reg 1 0 MemToReg $end
$var reg 1 / MemWrite $end
$var reg 1 ) RegDst $end
$var reg 1 ( RegWrite $end
$upscope $end
$scope module R1 $end
$var wire 5 G RegDest [4:0] $end
$var wire 5 H RegSource [4:0] $end
$var wire 5 I RegSupport [4:0] $end
$var wire 1 ( RegWrite $end
$var wire 6 J state [5:0] $end
$var wire 32 K WriteData [31:0] $end
$var reg 32 L ReadData1 [31:0] $end
$var reg 32 M ReadData2 [31:0] $end
$var reg 32 N s0 [31:0] $end
$var reg 32 O s1 [31:0] $end
$var reg 32 P s2 [31:0] $end
$var reg 32 Q s3 [31:0] $end
$var reg 32 R s4 [31:0] $end
$var reg 32 S s5 [31:0] $end
$var reg 32 T s6 [31:0] $end
$var reg 32 U s7 [31:0] $end
$var reg 32 V t0 [31:0] $end
$var reg 32 W t1 [31:0] $end
$var reg 32 X t2 [31:0] $end
$var reg 32 Y t3 [31:0] $end
$var reg 32 Z t4 [31:0] $end
$var reg 32 [ t5 [31:0] $end
$var reg 32 \ t6 [31:0] $end
$var reg 32 ] t7 [31:0] $end
$upscope $end
$upscope $end
$scope module e $end
$var wire 1 7 ALUSrc $end
$var wire 2 ^ ALUop [1:0] $end
$var wire 32 _ data1 [31:0] $end
$var wire 32 ` data2 [31:0] $end
$var wire 32 a sign_extended [31:0] $end
$var wire 6 b state [5:0] $end
$var wire 1 % zero $end
$var wire 32 c alu_result [31:0] $end
$var wire 32 d PC_next [31:0] $end
$var reg 6 e Function [5:0] $end
$var reg 32 f PC_branch [31:0] $end
$var reg 32 g operand1 [31:0] $end
$var reg 32 h operand2 [31:0] $end
$scope module am1 $end
$var wire 2 i ALUop [1:0] $end
$var wire 6 j Function [5:0] $end
$var wire 32 k data1 [31:0] $end
$var wire 32 l data2 [31:0] $end
$var wire 6 m state [5:0] $end
$var wire 32 n dataout [31:0] $end
$var wire 4 o ALUcontrol [3:0] $end
$scope module ac1 $end
$var wire 2 p ALUop [1:0] $end
$var wire 6 q Function [5:0] $end
$var wire 6 r state [5:0] $end
$var reg 4 s ALUcontrol [3:0] $end
$upscope $end
$scope module am1 $end
$var wire 4 t ALUcontrol [3:0] $end
$var wire 32 u data1 [31:0] $end
$var wire 32 v data2 [31:0] $end
$var wire 6 w state [5:0] $end
$var reg 32 x dataout [31:0] $end
$upscope $end
$upscope $end
$upscope $end
$scope module f $end
$var wire 1 # PC_enable $end
$var wire 1 " reset $end
$var wire 6 y state [5:0] $end
$var wire 32 z instruction [31:0] $end
$var wire 32 { PCOUT [31:0] $end
$var wire 32 | PCIN [31:0] $end
$var reg 32 } PC_next [31:0] $end
$scope module im $end
$var wire 6 ~ state [5:0] $end
$var wire 32 !" InstrAddr [31:0] $end
$var reg 32 "" ReadInstruction [31:0] $end
$upscope $end
$scope module pc $end
$var wire 1 # PC_enable $end
$var wire 1 " reset $end
$var wire 6 #" state [5:0] $end
$var wire 32 $" PCIN [31:0] $end
$var reg 32 %" PCOUT [31:0] $end
$upscope $end
$upscope $end
$scope module m $end
$var wire 32 &" Addr [31:0] $end
$var wire 1 ! CLK $end
$var wire 1 1 DR $end
$var wire 1 / DW $end
$var wire 32 '" PC_beq [31:0] $end
$var wire 32 (" PC_next [31:0] $end
$var wire 32 )" WriteData [31:0] $end
$var wire 1 % Zero $end
$var wire 1 4 branch $end
$var wire 6 *" state [5:0] $end
$var wire 32 +" ReadData [31:0] $end
$var reg 32 ," PC_new [31:0] $end
$scope module dm $end
$var wire 32 -" Addr [31:0] $end
$var wire 1 ! CLK $end
$var wire 1 1 DR $end
$var wire 1 / DW $end
$var wire 32 ." WriteData [31:0] $end
$var wire 6 /" state [5:0] $end
$var reg 32 0" ReadData [31:0] $end
$upscope $end
$upscope $end
$scope module w $end
$var wire 32 1" AluResult [31:0] $end
$var wire 1 0 MemtoReg $end
$var wire 32 2" Readdata [31:0] $end
$var wire 6 3" state [5:0] $end
$var reg 32 4" writedata [31:0] $end
$upscope $end
$upscope $end
$upscope $end
$enddefinitions $end
#0
$dumpvars
bx 4"
b1 3"
bx 2"
bx 1"
bx 0"
b1 /"
bx ."
bx -"
bx ,"
bx +"
b1 *"
bx )"
b1 ("
bx '"
bx &"
b0 %"
bx $"
b1 #"
bx ""
b0 !"
b1 ~
b1 }
bx |
b0 {
bx z
b1 y
bx x
b1 w
bx v
bx u
bx t
bx s
b1 r
bx q
bx p
bx o
bx n
b1 m
bx l
bx k
bx j
bx i
bx h
bx g
bx f
bx e
b1 d
bx c
b1 b
bx a
bx `
bx _
bx ^
bx ]
bx \
bx [
bx Z
bx Y
bx X
bx W
bx V
bx U
bx T
bx S
bx R
bx Q
bx P
bx O
bx N
bx M
bx L
bx K
b1 J
bx I
bx H
bx G
bx F
b1 E
bx D
bx C
bx B
bx A
bx @
bx ?
bx >
bx =
bx <
bx ;
bx :
b1 9
b1 8
x7
bx 6
bx 5
x4
bx 3
bx 2
x1
x0
x/
bx .
bx -
b0 ,
b1 +
bx *
x)
x(
bx '
bx &
x%
bx $
1#
1"
1!
$end
#1
b0 6
b0 >
b0 F
b0 ^
b0 i
b0 p
04
0/
11
1(
10
17
0)
b0 H
b11100 D
bz 2
bz @
bz `
bz )"
bz ."
b0 3
b0 ?
b0 _
b0 B
b0 I
b10001 A
b10001 G
bz ;
bz M
b0 <
b0 L
b1110000000100010000000000000000 $
b1110000000100010000000000000000 =
b1110000000100010000000000000000 z
b1110000000100010000000000000000 ""
b0 '
b0 C
b0 a
b10 8
b10 9
b10 E
b10 J
b10 b
b10 m
b10 r
b10 w
b10 y
b10 ~
b10 #"
b10 *"
b10 /"
b10 3"
0!
#2
1!
#3
0%
b0 h
b0 l
b0 v
b0 g
b0 k
b0 u
b0 e
b0 j
b0 q
b1 .
b1 f
b1 '"
b10 o
b10 s
b10 t
b100 8
b100 9
b100 E
b100 J
b100 b
b100 m
b100 r
b100 w
b100 y
b100 ~
b100 #"
b100 *"
b100 /"
b100 3"
0!
#4
1!
#5
b0 5
b0 c
b0 n
b0 x
b0 &"
b0 -"
b0 1"
b1000 8
b1000 9
b1000 E
b1000 J
b1000 b
b1000 m
b1000 r
b1000 w
b1000 y
b1000 ~
b1000 #"
b1000 *"
b1000 /"
b1000 3"
0!
0"
#6
b1 *
b1 +"
b1 0"
b1 2"
1!
#7
b1 -
b1 |
b1 $"
b1 ,"
b10000 8
b10000 9
b10000 E
b10000 J
b10000 b
b10000 m
b10000 r
b10000 w
b10000 y
b10000 ~
b10000 #"
b10000 *"
b10000 /"
b10000 3"
0!
#8
1!
#9
b1 W
b1 &
b1 :
b1 K
b1 4"
b100000 8
b100000 9
b100000 E
b100000 J
b100000 b
b100000 m
b100000 r
b100000 w
b100000 y
b100000 ~
b100000 #"
b100000 *"
b100000 /"
b100000 3"
0!
#10
1!
#11
b10 +
b10 d
b10 }
b10 ("
b1 ,
b1 {
b1 !"
b1 %"
b1 8
b1 9
b1 E
b1 J
b1 b
b1 m
b1 r
b1 w
b1 y
b1 ~
b1 #"
b1 *"
b1 /"
b1 3"
0!
#12
1!
#13
b10010 A
b10010 G
b1110000000100100000000000000000 $
b1110000000100100000000000000000 =
b1110000000100100000000000000000 z
b1110000000100100000000000000000 ""
b10 8
b10 9
b10 E
b10 J
b10 b
b10 m
b10 r
b10 w
b10 y
b10 ~
b10 #"
b10 *"
b10 /"
b10 3"
0!
#14
1!
#15
b10 .
b10 f
b10 '"
b100 8
b100 9
b100 E
b100 J
b100 b
b100 m
b100 r
b100 w
b100 y
b100 ~
b100 #"
b100 *"
b100 /"
b100 3"
0!
#16
1!
#17
b1000 8
b1000 9
b1000 E
b1000 J
b1000 b
b1000 m
b1000 r
b1000 w
b1000 y
b1000 ~
b1000 #"
b1000 *"
b1000 /"
b1000 3"
0!
#18
1!
#19
b10 -
b10 |
b10 $"
b10 ,"
b10000 8
b10000 9
b10000 E
b10000 J
b10000 b
b10000 m
b10000 r
b10000 w
b10000 y
b10000 ~
b10000 #"
b10000 *"
b10000 /"
b10000 3"
0!
#20
1!
#21
b1 X
b100000 8
b100000 9
b100000 E
b100000 J
b100000 b
b100000 m
b100000 r
b100000 w
b100000 y
b100000 ~
b100000 #"
b100000 *"
b100000 /"
b100000 3"
0!
#22
1!
#23
b11 +
b11 d
b11 }
b11 ("
b10 ,
b10 {
b10 !"
b10 %"
b1 8
b1 9
b1 E
b1 J
b1 b
b1 m
b1 r
b1 w
b1 y
b1 ~
b1 #"
b1 *"
b1 /"
b1 3"
0!
#24
1!
#25
b111100 '
b111100 C
b111100 a
b10011 A
b10011 G
b1110000000100110000000000111100 $
b1110000000100110000000000111100 =
b1110000000100110000000000111100 z
b1110000000100110000000000111100 ""
b10 8
b10 9
b10 E
b10 J
b10 b
b10 m
b10 r
b10 w
b10 y
b10 ~
b10 #"
b10 *"
b10 /"
b10 3"
0!
#26
1!
#27
b111100 h
b111100 l
b111100 v
b111100 e
b111100 j
b111100 q
b11110011 .
b11110011 f
b11110011 '"
b100 8
b100 9
b100 E
b100 J
b100 b
b100 m
b100 r
b100 w
b100 y
b100 ~
b100 #"
b100 *"
b100 /"
b100 3"
0!
#28
1!
#29
b111100 5
b111100 c
b111100 n
b111100 x
b111100 &"
b111100 -"
b111100 1"
b1000 8
b1000 9
b1000 E
b1000 J
b1000 b
b1000 m
b1000 r
b1000 w
b1000 y
b1000 ~
b1000 #"
b1000 *"
b1000 /"
b1000 3"
0!
#30
b10000000 *
b10000000 +"
b10000000 0"
b10000000 2"
1!
#31
b11 -
b11 |
b11 $"
b11 ,"
b10000 8
b10000 9
b10000 E
b10000 J
b10000 b
b10000 m
b10000 r
b10000 w
b10000 y
b10000 ~
b10000 #"
b10000 *"
b10000 /"
b10000 3"
0!
#32
1!
#33
b10000000 Y
b10000000 &
b10000000 :
b10000000 K
b10000000 4"
b100000 8
b100000 9
b100000 E
b100000 J
b100000 b
b100000 m
b100000 r
b100000 w
b100000 y
b100000 ~
b100000 #"
b100000 *"
b100000 /"
b100000 3"
0!
#34
1!
#35
b100 +
b100 d
b100 }
b100 ("
b11 ,
b11 {
b11 !"
b11 %"
b1 8
b1 9
b1 E
b1 J
b1 b
b1 m
b1 r
b1 w
b1 y
b1 ~
b1 #"
b1 *"
b1 /"
b1 3"
0!
#36
1!
#37
b1 2
b1 @
b1 `
b1 )"
b1 ."
b1 3
b1 ?
b1 _
b10 6
b10 >
b10 F
b10 ^
b10 i
b10 p
01
00
07
1)
b1 ;
b1 M
b1 <
b1 L
b10001 H
b0 D
b1001000000111111 '
b1001000000111111 C
b1001000000111111 a
b10010 B
b10010 I
b1001 A
b1001 G
b10001010011001000000111111 $
b10001010011001000000111111 =
b10001010011001000000111111 z
b10001010011001000000111111 ""
b10 8
b10 9
b10 E
b10 J
b10 b
b10 m
b10 r
b10 w
b10 y
b10 ~
b10 #"
b10 *"
b10 /"
b10 3"
0!
#38
1!
#39
b1 h
b1 l
b1 v
b1 g
b1 k
b1 u
b111111 e
b111111 j
b111111 q
b100100000100000000 .
b100100000100000000 f
b100100000100000000 '"
b1000 o
b1000 s
b1000 t
b100 8
b100 9
b100 E
b100 J
b100 b
b100 m
b100 r
b100 w
b100 y
b100 ~
b100 #"
b100 *"
b100 /"
b100 3"
0!
#40
1!
#41
b1 5
b1 c
b1 n
b1 x
b1 &"
b1 -"
b1 1"
b1000 8
b1000 9
b1000 E
b1000 J
b1000 b
b1000 m
b1000 r
b1000 w
b1000 y
b1000 ~
b1000 #"
b1000 *"
b1000 /"
b1000 3"
0!
#42
1!
#43
b100 -
b100 |
b100 $"
b100 ,"
b10000 8
b10000 9
b10000 E
b10000 J
b10000 b
b10000 m
b10000 r
b10000 w
b10000 y
b10000 ~
b10000 #"
b10000 *"
b10000 /"
b10000 3"
0!
#44
1!
#45
b1 O
b1 &
b1 :
b1 K
b1 4"
b100000 8
b100000 9
b100000 E
b100000 J
b100000 b
b100000 m
b100000 r
b100000 w
b100000 y
b100000 ~
b100000 #"
b100000 *"
b100000 /"
b100000 3"
0!
#46
1!
#47
b101 +
b101 d
b101 }
b101 ("
b100 ,
b100 {
b100 !"
b100 %"
b1 8
b1 9
b1 E
b1 J
b1 b
b1 m
b1 r
b1 w
b1 y
b1 ~
b1 #"
b1 *"
b1 /"
b1 3"
0!
#48
1!
#49
bz 2
bz @
bz `
bz )"
bz ."
b0 3
b0 ?
b0 _
b0 6
b0 >
b0 F
b0 ^
b0 i
b0 p
11
10
17
0)
bz ;
bz M
b0 <
b0 L
b0 H
b11100 D
b1111100 '
b1111100 C
b1111100 a
b0 B
b0 I
b1000 A
b1000 G
b1110000000010000000000001111100 $
b1110000000010000000000001111100 =
b1110000000010000000000001111100 z
b1110000000010000000000001111100 ""
b10 8
b10 9
b10 E
b10 J
b10 b
b10 m
b10 r
b10 w
b10 y
b10 ~
b10 #"
b10 *"
b10 /"
b10 3"
0!
#50
1!
#51
b1111100 h
b1111100 l
b1111100 v
b0 g
b0 k
b0 u
b111100 e
b111100 j
b111100 q
b111110101 .
b111110101 f
b111110101 '"
b10 o
b10 s
b10 t
b100 8
b100 9
b100 E
b100 J
b100 b
b100 m
b100 r
b100 w
b100 y
b100 ~
b100 #"
b100 *"
b100 /"
b100 3"
0!
#52
1!
#53
b1111100 5
b1111100 c
b1111100 n
b1111100 x
b1111100 &"
b1111100 -"
b1111100 1"
b1000 8
b1000 9
b1000 E
b1000 J
b1000 b
b1000 m
b1000 r
b1000 w
b1000 y
b1000 ~
b1000 #"
b1000 *"
b1000 /"
b1000 3"
0!
#54
b0 *
b0 +"
b0 0"
b0 2"
1!
#55
b101 -
b101 |
b101 $"
b101 ,"
b10000 8
b10000 9
b10000 E
b10000 J
b10000 b
b10000 m
b10000 r
b10000 w
b10000 y
b10000 ~
b10000 #"
b10000 *"
b10000 /"
b10000 3"
0!
#56
1!
#57
b0 N
b0 &
b0 :
b0 K
b0 4"
b100000 8
b100000 9
b100000 E
b100000 J
b100000 b
b100000 m
b100000 r
b100000 w
b100000 y
b100000 ~
b100000 #"
b100000 *"
b100000 /"
b100000 3"
0!
#58
1!
#59
b110 +
b110 d
b110 }
b110 ("
b101 ,
b101 {
b101 !"
b101 %"
b1 8
b1 9
b1 E
b1 J
b1 b
b1 m
b1 r
b1 w
b1 y
b1 ~
b1 #"
b1 *"
b1 /"
b1 3"
0!
#60
1!
#61
b0 2
b0 @
b0 `
b0 )"
b0 ."
b1 3
b1 ?
b1 _
b10 6
b10 >
b10 F
b10 ^
b10 i
b10 p
01
00
07
1)
b0 ;
b0 M
b1 <
b1 L
b1001 H
b0 D
b100000000100000 '
b100000000100000 C
b100000000100000 a
b1000 B
b1000 I
b1001010000100000000100000 $
b1001010000100000000100000 =
b1001010000100000000100000 z
b1001010000100000000100000 ""
b10 8
b10 9
b10 E
b10 J
b10 b
b10 m
b10 r
b10 w
b10 y
b10 ~
b10 #"
b10 *"
b10 /"
b10 3"
0!
#62
1!
#63
1%
b0 h
b0 l
b0 v
b1 g
b1 k
b1 u
b100000 e
b100000 j
b100000 q
b10000000010000110 .
b10000000010000110 f
b10000000010000110 '"
b10 o
b10 s
b10 t
b100 8
b100 9
b100 E
b100 J
b100 b
b100 m
b100 r
b100 w
b100 y
b100 ~
b100 #"
b100 *"
b100 /"
b100 3"
0!
#64
1!
#65
b1 5
b1 c
b1 n
b1 x
b1 &"
b1 -"
b1 1"
b1000 8
b1000 9
b1000 E
b1000 J
b1000 b
b1000 m
b1000 r
b1000 w
b1000 y
b1000 ~
b1000 #"
b1000 *"
b1000 /"
b1000 3"
0!
#66
1!
#67
b110 -
b110 |
b110 $"
b110 ,"
b10000 8
b10000 9
b10000 E
b10000 J
b10000 b
b10000 m
b10000 r
b10000 w
b10000 y
b10000 ~
b10000 #"
b10000 *"
b10000 /"
b10000 3"
0!
#68
1!
#69
b1 N
b1 &
b1 :
b1 K
b1 4"
b100000 8
b100000 9
b100000 E
b100000 J
b100000 b
b100000 m
b100000 r
b100000 w
b100000 y
b100000 ~
b100000 #"
b100000 *"
b100000 /"
b100000 3"
0!
#70
1!
#71
b111 +
b111 d
b111 }
b111 ("
b110 ,
b110 {
b110 !"
b110 %"
b1 8
b1 9
b1 E
b1 J
b1 b
b1 m
b1 r
b1 w
b1 y
b1 ~
b1 #"
b1 *"
b1 /"
b1 3"
0!
#72
1!
#73
b0 3
b0 ?
b0 _
b0 6
b0 >
b0 F
b0 ^
b0 i
b0 p
11
10
17
0)
b0 <
b0 L
b0 H
b11100 D
b100 '
b100 C
b100 a
bz 2
bz @
bz `
bz )"
bz ."
b0 B
b0 I
b10001 A
b10001 G
bz ;
bz M
b1110000000100010000000000000100 $
b1110000000100010000000000000100 =
b1110000000100010000000000000100 z
b1110000000100010000000000000100 ""
b10 8
b10 9
b10 E
b10 J
b10 b
b10 m
b10 r
b10 w
b10 y
b10 ~
b10 #"
b10 *"
b10 /"
b10 3"
0!
#74
1!
#75
0%
b100 h
b100 l
b100 v
b0 g
b0 k
b0 u
b100 e
b100 j
b100 q
b10111 .
b10111 f
b10111 '"
b100 8
b100 9
b100 E
b100 J
b100 b
b100 m
b100 r
b100 w
b100 y
b100 ~
b100 #"
b100 *"
b100 /"
b100 3"
0!
#76
1!
#77
b100 5
b100 c
b100 n
b100 x
b100 &"
b100 -"
b100 1"
b1000 8
b1000 9
b1000 E
b1000 J
b1000 b
b1000 m
b1000 r
b1000 w
b1000 y
b1000 ~
b1000 #"
b1000 *"
b1000 /"
b1000 3"
0!
#78
b10 *
b10 +"
b10 0"
b10 2"
1!
#79
b111 -
b111 |
b111 $"
b111 ,"
b10000 8
b10000 9
b10000 E
b10000 J
b10000 b
b10000 m
b10000 r
b10000 w
b10000 y
b10000 ~
b10000 #"
b10000 *"
b10000 /"
b10000 3"
0!
#80
1!
#81
b10 W
b10 &
b10 :
b10 K
b10 4"
b100000 8
b100000 9
b100000 E
b100000 J
b100000 b
b100000 m
b100000 r
b100000 w
b100000 y
b100000 ~
b100000 #"
b100000 *"
b100000 /"
b100000 3"
0!
#82
1!
#83
b1000 +
b1000 d
b1000 }
b1000 ("
b111 ,
b111 {
b111 !"
b111 %"
b1 8
b1 9
b1 E
b1 J
b1 b
b1 m
b1 r
b1 w
b1 y
b1 ~
b1 #"
b1 *"
b1 /"
b1 3"
0!
#84
1!
#85
b1100 '
b1100 C
b1100 a
b10010 A
b10010 G
b1110000000100100000000000001100 $
b1110000000100100000000000001100 =
b1110000000100100000000000001100 z
b1110000000100100000000000001100 ""
b10 8
b10 9
b10 E
b10 J
b10 b
b10 m
b10 r
b10 w
b10 y
b10 ~
b10 #"
b10 *"
b10 /"
b10 3"
0!
#86
1!
#87
b1100 h
b1100 l
b1100 v
b1100 e
b1100 j
b1100 q
b111000 .
b111000 f
b111000 '"
b100 8
b100 9
b100 E
b100 J
b100 b
b100 m
b100 r
b100 w
b100 y
b100 ~
b100 #"
b100 *"
b100 /"
b100 3"
0!
#88
1!
#89
b1100 5
b1100 c
b1100 n
b1100 x
b1100 &"
b1100 -"
b1100 1"
b1000 8
b1000 9
b1000 E
b1000 J
b1000 b
b1000 m
b1000 r
b1000 w
b1000 y
b1000 ~
b1000 #"
b1000 *"
b1000 /"
b1000 3"
0!
#90
b100 *
b100 +"
b100 0"
b100 2"
1!
#91
b1000 -
b1000 |
b1000 $"
b1000 ,"
b10000 8
b10000 9
b10000 E
b10000 J
b10000 b
b10000 m
b10000 r
b10000 w
b10000 y
b10000 ~
b10000 #"
b10000 *"
b10000 /"
b10000 3"
0!
#92
1!
#93
b100 X
b100 &
b100 :
b100 K
b100 4"
b100000 8
b100000 9
b100000 E
b100000 J
b100000 b
b100000 m
b100000 r
b100000 w
b100000 y
b100000 ~
b100000 #"
b100000 *"
b100000 /"
b100000 3"
0!
#94
1!
#95
b1001 +
b1001 d
b1001 }
b1001 ("
b1000 ,
b1000 {
b1000 !"
b1000 %"
b1 8
b1 9
b1 E
b1 J
b1 b
b1 m
b1 r
b1 w
b1 y
b1 ~
b1 #"
b1 *"
b1 /"
b1 3"
0!
#96
1!
#97
b100 2
b100 @
b100 `
b100 )"
b100 ."
b10 3
b10 ?
b10 _
b10 6
b10 >
b10 F
b10 ^
b10 i
b10 p
01
00
07
1)
b100 ;
b100 M
b10 <
b10 L
b10001 H
b0 D
b1001000000111111 '
b1001000000111111 C
b1001000000111111 a
b10010 B
b10010 I
b1001 A
b1001 G
b10001010011001000000111111 $
b10001010011001000000111111 =
b10001010011001000000111111 z
b10001010011001000000111111 ""
b10 8
b10 9
b10 E
b10 J
b10 b
b10 m
b10 r
b10 w
b10 y
b10 ~
b10 #"
b10 *"
b10 /"
b10 3"
0!
#98
1!
#99
b100 h
b100 l
b100 v
b10 g
b10 k
b10 u
b111111 e
b111111 j
b111111 q
b100100000100000101 .
b100100000100000101 f
b100100000100000101 '"
b1000 o
b1000 s
b1000 t
b100 8
b100 9
b100 E
b100 J
b100 b
b100 m
b100 r
b100 w
b100 y
b100 ~
b100 #"
b100 *"
b100 /"
b100 3"
0!
#100
1!
#101
b1000 5
b1000 c
b1000 n
b1000 x
b1000 &"
b1000 -"
b1000 1"
b1000 8
b1000 9
b1000 E
b1000 J
b1000 b
b1000 m
b1000 r
b1000 w
b1000 y
b1000 ~
b1000 #"
b1000 *"
b1000 /"
b1000 3"
0!
#102
1!
#103
b1001 -
b1001 |
b1001 $"
b1001 ,"
b10000 8
b10000 9
b10000 E
b10000 J
b10000 b
b10000 m
b10000 r
b10000 w
b10000 y
b10000 ~
b10000 #"
b10000 *"
b10000 /"
b10000 3"
0!
#104
1!
#105
b1000 O
b1000 &
b1000 :
b1000 K
b1000 4"
b100000 8
b100000 9
b100000 E
b100000 J
b100000 b
b100000 m
b100000 r
b100000 w
b100000 y
b100000 ~
b100000 #"
b100000 *"
b100000 /"
b100000 3"
0!
#106
1!
#107
b1010 +
b1010 d
b1010 }
b1010 ("
b1001 ,
b1001 {
b1001 !"
b1001 %"
b1 8
b1 9
b1 E
b1 J
b1 b
b1 m
b1 r
b1 w
b1 y
b1 ~
b1 #"
b1 *"
b1 /"
b1 3"
0!
#108
1!
#109
b1 2
b1 @
b1 `
b1 )"
b1 ."
b1000 3
b1000 ?
b1000 _
b1 ;
b1 M
b1000 <
b1000 L
b1001 H
b100000000100000 '
b100000000100000 C
b100000000100000 a
b1000 B
b1000 I
b1000 A
b1000 G
b1001010000100000000100000 $
b1001010000100000000100000 =
b1001010000100000000100000 z
b1001010000100000000100000 ""
b10 8
b10 9
b10 E
b10 J
b10 b
b10 m
b10 r
b10 w
b10 y
b10 ~
b10 #"
b10 *"
b10 /"
b10 3"
0!
#110
1!
#111
1%
b10 o
b10 s
b10 t
b1 h
b1 l
b1 v
b1000 g
b1000 k
b1000 u
b100000 e
b100000 j
b100000 q
b10000000010001010 .
b10000000010001010 f
b10000000010001010 '"
b100 8
b100 9
b100 E
b100 J
b100 b
b100 m
b100 r
b100 w
b100 y
b100 ~
b100 #"
b100 *"
b100 /"
b100 3"
0!
#112
1!
#113
b1001 5
b1001 c
b1001 n
b1001 x
b1001 &"
b1001 -"
b1001 1"
b1000 8
b1000 9
b1000 E
b1000 J
b1000 b
b1000 m
b1000 r
b1000 w
b1000 y
b1000 ~
b1000 #"
b1000 *"
b1000 /"
b1000 3"
0!
#114
1!
#115
b1010 -
b1010 |
b1010 $"
b1010 ,"
b10000 8
b10000 9
b10000 E
b10000 J
b10000 b
b10000 m
b10000 r
b10000 w
b10000 y
b10000 ~
b10000 #"
b10000 *"
b10000 /"
b10000 3"
0!
#116
1!
#117
b1001 N
b1001 &
b1001 :
b1001 K
b1001 4"
b100000 8
b100000 9
b100000 E
b100000 J
b100000 b
b100000 m
b100000 r
b100000 w
b100000 y
b100000 ~
b100000 #"
b100000 *"
b100000 /"
b100000 3"
0!
#118
1!
#119
b1011 +
b1011 d
b1011 }
b1011 ("
b1010 ,
b1010 {
b1010 !"
b1010 %"
b1 8
b1 9
b1 E
b1 J
b1 b
b1 m
b1 r
b1 w
b1 y
b1 ~
b1 #"
b1 *"
b1 /"
b1 3"
0!
#120
1!
#121
b0 3
b0 ?
b0 _
b0 6
b0 >
b0 F
b0 ^
b0 i
b0 p
11
10
17
0)
b0 <
b0 L
b0 H
b11100 D
b1000 '
b1000 C
b1000 a
bz 2
bz @
bz `
bz )"
bz ."
b0 B
b0 I
b10001 A
b10001 G
bz ;
bz M
b1110000000100010000000000001000 $
b1110000000100010000000000001000 =
b1110000000100010000000000001000 z
b1110000000100010000000000001000 ""
b10 8
b10 9
b10 E
b10 J
b10 b
b10 m
b10 r
b10 w
b10 y
b10 ~
b10 #"
b10 *"
b10 /"
b10 3"
0!
#122
1!
#123
0%
b1000 h
b1000 l
b1000 v
b0 g
b0 k
b0 u
b1000 e
b1000 j
b1000 q
b101011 .
b101011 f
b101011 '"
b100 8
b100 9
b100 E
b100 J
b100 b
b100 m
b100 r
b100 w
b100 y
b100 ~
b100 #"
b100 *"
b100 /"
b100 3"
0!
#124
1!
#125
b1000 5
b1000 c
b1000 n
b1000 x
b1000 &"
b1000 -"
b1000 1"
b1000 8
b1000 9
b1000 E
b1000 J
b1000 b
b1000 m
b1000 r
b1000 w
b1000 y
b1000 ~
b1000 #"
b1000 *"
b1000 /"
b1000 3"
0!
#126
b11 *
b11 +"
b11 0"
b11 2"
1!
#127
b1011 -
b1011 |
b1011 $"
b1011 ,"
b10000 8
b10000 9
b10000 E
b10000 J
b10000 b
b10000 m
b10000 r
b10000 w
b10000 y
b10000 ~
b10000 #"
b10000 *"
b10000 /"
b10000 3"
0!
#128
1!
#129
b11 W
b11 &
b11 :
b11 K
b11 4"
b100000 8
b100000 9
b100000 E
b100000 J
b100000 b
b100000 m
b100000 r
b100000 w
b100000 y
b100000 ~
b100000 #"
b100000 *"
b100000 /"
b100000 3"
0!
#130
1!
#131
b1100 +
b1100 d
b1100 }
b1100 ("
b1011 ,
b1011 {
b1011 !"
b1011 %"
b1 8
b1 9
b1 E
b1 J
b1 b
b1 m
b1 r
b1 w
b1 y
b1 ~
b1 #"
b1 *"
b1 /"
b1 3"
0!
#132
1!
#133
b11000 '
b11000 C
b11000 a
b10010 A
b10010 G
b1110000000100100000000000011000 $
b1110000000100100000000000011000 =
b1110000000100100000000000011000 z
b1110000000100100000000000011000 ""
b10 8
b10 9
b10 E
b10 J
b10 b
b10 m
b10 r
b10 w
b10 y
b10 ~
b10 #"
b10 *"
b10 /"
b10 3"
0!
#134
1!
#135
b11000 h
b11000 l
b11000 v
b11000 e
b11000 j
b11000 q
b1101100 .
b1101100 f
b1101100 '"
b100 8
b100 9
b100 E
b100 J
b100 b
b100 m
b100 r
b100 w
b100 y
b100 ~
b100 #"
b100 *"
b100 /"
b100 3"
0!
#136
1!
#137
b11000 5
b11000 c
b11000 n
b11000 x
b11000 &"
b11000 -"
b11000 1"
b1000 8
b1000 9
b1000 E
b1000 J
b1000 b
b1000 m
b1000 r
b1000 w
b1000 y
b1000 ~
b1000 #"
b1000 *"
b1000 /"
b1000 3"
0!
#138
b111 *
b111 +"
b111 0"
b111 2"
1!
#139
b1100 -
b1100 |
b1100 $"
b1100 ,"
b10000 8
b10000 9
b10000 E
b10000 J
b10000 b
b10000 m
b10000 r
b10000 w
b10000 y
b10000 ~
b10000 #"
b10000 *"
b10000 /"
b10000 3"
0!
#140
1!
#141
b111 X
b111 &
b111 :
b111 K
b111 4"
b100000 8
b100000 9
b100000 E
b100000 J
b100000 b
b100000 m
b100000 r
b100000 w
b100000 y
b100000 ~
b100000 #"
b100000 *"
b100000 /"
b100000 3"
0!
#142
1!
